<?xml version="1.0" encoding="UTF-8" standalone="no"?>
<svg
   xmlns:dc="http://purl.org/dc/elements/1.1/"
   xmlns:cc="http://creativecommons.org/ns#"
   xmlns:rdf="http://www.w3.org/1999/02/22-rdf-syntax-ns#"
   xmlns:svg="http://www.w3.org/2000/svg"
   xmlns="http://www.w3.org/2000/svg"
   xmlns:sodipodi="http://sodipodi.sourceforge.net/DTD/sodipodi-0.dtd"
   xmlns:inkscape="http://www.inkscape.org/namespaces/inkscape"
   version="1.1"
   id="svg4197"
   viewBox="0 0 64 64"
   height="64"
   width="64"
   sodipodi:docname="icon.svg"
   inkscape:version="1.0alpha (2b290efb96, 2019-03-26, custom)"
   inkscape:export-filename="/home/doctormo/Projects/inkscape/extension-manager-icon.png"
   inkscape:export-xdpi="450"
   inkscape:export-ydpi="450">
  <sodipodi:namedview
     inkscape:snap-others="false"
     inkscape:bbox-paths="false"
     inkscape:snap-bbox="false"
     inkscape:object-nodes="true"
     inkscape:snap-global="true"
     pagecolor="#868686"
     bordercolor="#666666"
     inkscape:document-rotation="0"
     borderopacity="1"
     objecttolerance="10"
     gridtolerance="10"
     guidetolerance="10"
     inkscape:pageopacity="0.4745098"
     inkscape:pageshadow="2"
     inkscape:window-width="640"
     inkscape:window-height="480"
     id="namedview11"
     showgrid="false"
     inkscape:zoom="3.6338834"
     inkscape:cx="53.317741"
     inkscape:cy="34.909939"
     inkscape:current-layer="svg4197" />
  <style
     id="style4677" />
  <defs
     id="defs4199" />
  <metadata
     id="metadata4202">
    <rdf:RDF>
      <cc:Work
         rdf:about="">
        <dc:format>image/svg+xml</dc:format>
        <dc:type
           rdf:resource="http://purl.org/dc/dcmitype/StillImage" />
        <dc:title></dc:title>
      </cc:Work>
    </rdf:RDF>
  </metadata>
  <rect
     transform="rotate(90)"
     style="vector-effect:none;fill:#0368c5;stroke:#000000;stroke-width:3.02362;paint-order:stroke fill markers;stop-color:#000000;fill-opacity:1"
     id="rect85"
     width="15.705072"
     height="31.992992"
     x="7.4662352"
     y="-39.562698" />
  <rect
     y="-56.775772"
     x="-23.313889"
     height="31.994938"
     width="15.704117"
     id="rect87"
     style="vector-effect:none;fill:#1a1a1a;stroke:#000000;stroke-width:3.02362;paint-order:stroke fill markers;stop-color:#000000;fill-opacity:1"
     transform="scale(-1)" />
  <rect
     transform="scale(-1)"
     style="vector-effect:none;fill:#f208f2;stroke:#000000;stroke-width:3.02362;paint-order:stroke fill markers;stop-color:#000000;fill-opacity:1"
     id="rect89"
     width="15.704117"
     height="31.994938"
     x="-56.739635"
     y="-39.477638" />
  <rect
     y="-56.739635"
     x="41.075649"
     height="31.992992"
     width="15.705072"
     id="rect91"
     style="vector-effect:none;fill:#fcd22c;stroke:#000000;stroke-width:3.02362;paint-order:stroke fill markers;stop-color:#000000;fill-opacity:1"
     transform="rotate(90)" />
  <rect
     ry="2.1866939"
     y="9.654954"
     x="9.6677532"
     height="4.3733878"
     width="27.262732"
     id="rect93"
     style="vector-effect:none;fill:#ffffff;fill-opacity:0.5;stroke:none;stroke-width:3.02362;paint-order:stroke fill markers;stop-color:#000000" />
  <rect
     transform="matrix(0,-1,-1,0,0,0)"
     style="vector-effect:none;fill:#ffffff;fill-opacity:0.5;stroke:none;stroke-width:3.02362;paint-order:stroke fill markers;stop-color:#000000"
     id="rect95"
     width="27.262732"
     height="4.3733878"
     x="-37.368324"
     y="-47.431805"
     ry="2.1866939" />
  <rect
     ry="2.1866939"
     y="-14.211364"
     x="-54.371723"
     height="4.3733878"
     width="27.262732"
     id="rect920"
     style="vector-effect:none;fill:#ffffff;fill-opacity:0.5;stroke:none;stroke-width:3.02362;paint-order:stroke fill markers;stop-color:#000000"
     transform="matrix(0,-1,-1,0,0,0)" />
  <rect
     transform="scale(1,-1)"
     style="vector-effect:none;fill:#ffffff;fill-opacity:0.5;stroke:none;stroke-width:3.02362;paint-order:stroke fill markers;stop-color:#000000"
     id="rect922"
     width="27.262732"
     height="4.3733878"
     x="26.86861"
     y="-47.615719"
     ry="2.1866939" />
</svg>
